EMW - reshaping data with tidyr
…
Pivot Longer

Credit: datasciencebook.ca

Credit: datasciencebook.ca

lang_mother_tidy <- pivot_longer(lang_wide,
  cols = Toronto:Edmonton,
  names_to = "region",
  values_to = "mother_tongue"
)

lang_mother_tidy

# A tibble: 1,070 × 4
   category                                language         region mother_tongue
   <chr>                                   <chr>            <chr>          <int>
 1 Aboriginal languages                    Aboriginal lang… Toron…            80
 2 Aboriginal languages                    Aboriginal lang… Montr…            30
 3 Aboriginal languages                    Aboriginal lang… Vanco…            70
 4 Aboriginal languages                    Aboriginal lang… Calga…            20
 5 Aboriginal languages                    Aboriginal lang… Edmon…            25
 6 Non-Official & Non-Aboriginal languages Afrikaans        Toron…           985
 7 Non-Official & Non-Aboriginal languages Afrikaans        Montr…            90
 8 Non-Official & Non-Aboriginal languages Afrikaans        Vanco…          1435
 9 Non-Official & Non-Aboriginal languages Afrikaans        Calga…           960
10 Non-Official & Non-Aboriginal languages Afrikaans        Edmon…           575
# ℹ 1,060 more rows
…
Pivot Wider

lang_long <- read.csv("https://raw.githubusercontent.com/UBC-DSCI/introduction-to-datascience/master/data/region_lang_top5_cities_long.csv")

Credit: datasciencebook.ca

Credit: datasciencebook.ca

lang_home_tidy <- pivot_wider(lang_long,
  names_from = type,
  values_from = count
)
lang_home_tidy

# A tibble: 1,070 × 5
   region    category                         language most_at_home most_at_work
   <chr>     <chr>                            <chr>           <int>        <int>
 1 Montréal  Aboriginal languages             Aborigi…           15            0
 2 Toronto   Aboriginal languages             Aborigi…           50            0
 3 Calgary   Aboriginal languages             Aborigi…            5            0
 4 Edmonton  Aboriginal languages             Aborigi…           10            0
 5 Vancouver Aboriginal languages             Aborigi…           15            0
 6 Montréal  Non-Official & Non-Aboriginal l… Afrikaa…           10            0
 7 Toronto   Non-Official & Non-Aboriginal l… Afrikaa…          265            0
 8 Calgary   Non-Official & Non-Aboriginal l… Afrikaa…          505           15
 9 Edmonton  Non-Official & Non-Aboriginal l… Afrikaa…          300            0
10 Vancouver Non-Official & Non-Aboriginal l… Afrikaa…          520           10
# ℹ 1,060 more rows
…
lifeExp_wide <- asia %>% 
1  pivot_wider(names_from = "year",
2              names_prefix = "yr",
              values_from = "lifeExp")
lifeExp_wide

1

use pivot_wider to go from long to wide format

2

Adds the pre-fix “yr” to all the column names – it’s a good idea to avoid column names that start with a number.

# A tibble: 33 × 13
   country yr1952 yr1957 yr1962 yr1967 yr1972 yr1977 yr1982 yr1987 yr1992 yr1997
   <fct>    <dbl>  <dbl>  <dbl>  <dbl>  <dbl>  <dbl>  <dbl>  <dbl>  <dbl>  <dbl>
 1 Afghan…   28.8   30.3   32.0   34.0   36.1   38.4   39.9   40.8   41.7   41.8
 2 Bahrain   50.9   53.8   56.9   59.9   63.3   65.6   69.1   70.8   72.6   73.9
 3 Bangla…   37.5   39.3   41.2   43.5   45.3   46.9   50.0   52.8   56.0   59.4
 4 Cambod…   39.4   41.4   43.4   45.4   40.3   31.2   51.0   53.9   55.8   56.5
 5 China     44     50.5   44.5   58.4   63.1   64.0   65.5   67.3   68.7   70.4
 6 Hong K…   61.0   64.8   67.6   70     72     73.6   75.4   76.2   77.6   80  
 7 India     37.4   40.2   43.6   47.2   50.7   54.2   56.6   58.6   60.2   61.8
 8 Indone…   37.5   39.9   42.5   46.0   49.2   52.7   56.2   60.1   62.7   66.0
 9 Iran      44.9   47.2   49.3   52.5   55.2   57.7   59.6   63.0   65.7   68.0
10 Iraq      45.3   48.4   51.5   54.5   57.0   60.4   62.0   65.0   59.5   58.8
# ℹ 23 more rows
# ℹ 2 more variables: yr2002 <dbl>, yr2007 <dbl>
…
