EMW - Webscraping Tables
…
Check out the information on the (List of the Most Viewed YouTube Videos on Wikipedia)[https://en.wikipedia.org/wiki/List_of_most-viewed_YouTube_videos]. Suppose we want to scrape this data to use in R.

read_html scrapes the raw html from the webpage as text

html_element (and html_elements) selects particular elements from the HTML code

html_table formats a scraped html table as a tibble (R table)

youtube_videos <- read_html("https://en.wikipedia.org/wiki/List_of_most-viewed_YouTube_videos") %>%
  html_element(".wikitable") %>%
  html_table() 

youtube_videos

# A tibble: 31 × 6
   `Video name`                    Uploader `Views (billions)` Date  Notes ``   
   <chr>                           <chr>    <chr>              <chr> <chr> <chr>
 1 Baby Shark Dance[7]             Pinkfon… 15.65              June… "[A]" <NA> 
 2 Despacito[10]                   Luis Fo… 8.66               Janu… "[B]" <NA> 
 3 Wheels on the Bus[18]           Cocomel… 7.17               May … ""    <NA> 
 4 Johny Johny Yes Papa[19]        LooLoo … 7.02               Octo… ""    <NA> 
 5 Bath Song[20]                   Cocomel… 7.01               May … ""    <NA> 
 6 See You Again[21]               Wiz Kha… 6.58               Apri… "[C]" <NA> 
 7 Shape of You[26]                Ed Shee… 6.42               Janu… "[D]" <NA> 
 8 Phonics Song with Two Words[29] ChuChu … 6.31               Marc… ""    <NA> 
 9 Uptown Funk[30]                 Mark Ro… 5.49               Nove… ""    <NA> 
10 Gangnam Style[31]               Psy      5.48               July… "[E]" <NA> 
# ℹ 21 more rows
…
